…
### Combining dataframes

``` r
combined_trash = 
  bind_rows(mr_trash, prof_trash, gwynda) 
combined_trash
```

    ## # A tibble: 1,032 × 15
    ##    trash_wheel dumpster month  year date                weight_tons
    ##    <chr>          <dbl> <chr> <dbl> <dttm>                    <dbl>
    ##  1 mr                 1 May    2014 2014-05-16 00:00:00        4.31
    ##  2 mr                 2 May    2014 2014-05-16 00:00:00        2.74
    ##  3 mr                 3 May    2014 2014-05-16 00:00:00        3.45
    ##  4 mr                 4 May    2014 2014-05-17 00:00:00        3.1 
    ##  5 mr                 5 May    2014 2014-05-17 00:00:00        4.06
    ##  6 mr                 6 May    2014 2014-05-20 00:00:00        2.71
    ##  7 mr                 7 May    2014 2014-05-21 00:00:00        1.91
    ##  8 mr                 8 May    2014 2014-05-28 00:00:00        3.7 
    ##  9 mr                 9 June   2014 2014-06-05 00:00:00        2.52
    ## 10 mr                10 June   2014 2014-06-11 00:00:00        3.76
    ## # ℹ 1,022 more rows
    ## # ℹ 9 more variables: volume_cubic_yards <dbl>, plastic_bottles <dbl>,
    ## #   polystyrene <dbl>, cigarette_butts <dbl>, glass_bottles <dbl>,
    ## #   plastic_bags <dbl>, wrappers <dbl>, sports_balls <int>, homes_powered <dbl>
…
``` r
comb_df = 
  comb_df |> 
  relocate(signature_bake, .before = "technical") |> 
  relocate(result, .after = "show_stopper") |> 
  relocate(last_name, .after = "first_name")
comb_df
```

    ## # A tibble: 1,136 × 11
    ##    series episode first_name last_name signature_bake     technical show_stopper
    ##     <dbl>   <dbl> <chr>      <chr>     <chr>                  <dbl> <chr>       
    ##  1      1       1 Annetha    Mills     "Light Jamaican B…         2 Red, White …
    ##  2      1       1 David      Chambers  "Chocolate Orange…         3 Black Fores…
    ##  3      1       1 Edd        Kimber    "Caramel Cinnamon…         1 <NA>        
    ##  4      1       1 Jasminder  Randhawa  "Fresh Mango and …        NA <NA>        
    ##  5      1       1 Jonathan   Shepherd  "Carrot Cake with…         9 Three Tiere…
    ##  6      1       1 Louise     Brimelow  "Carrot and Orang…        NA Never Fail …
    ##  7      1       1 Miranda    Browne    "Triple Layered B…         8 Three Tiere…
    ##  8      1       1 Ruth       Clemens   "Three Tiered Lem…        NA Classic Cho…
    ##  9      1       1 Lea        Harris    "Cranberry and Pi…        10 Raspberries…
    ## 10      1       1 Mark       Whithers  "Sticky Marmalade…        NA Heart-shape…
    ## # ℹ 1,126 more rows
    ## # ℹ 4 more variables: result <chr>, baker_age <dbl>, baker_occupation <chr>,
    ## #   hometown <chr>
…
